%YAML 1.1
%TAG !u! tag:unity3d.com,2011:
--- !u!74 &7400000
AnimationClip:
  m_ObjectHideFlags: 0
  m_PrefabParentObject: {fileID: 0}
  m_PrefabInternal: {fileID: 0}
  m_Name: YellowArmDash
  serializedVersion: 6
  m_Legacy: 0
  m_Compressed: 0
  m_UseHighQualityCurve: 1
  m_RotationCurves:
  - curve:
      serializedVersion: 2
      m_Curve:
      - time: 0
        value: {x: 0, y: 0, z: -.784830332, w: -.619710684}
        inSlope: {x: -0, y: -0, z: 28.6271152, w: -10.9750643}
        outSlope: {x: -0, y: -0, z: 28.6271152, w: -10.9750643}
        tangentMode: 0
      - time: .0333333351
        value: {x: -0, y: -0, z: .169406876, w: -.985546172}
        inSlope: {x: 0, y: 0, z: 25.973175, w: 4.46456385}
        outSlope: {x: 0, y: 0, z: 25.973175, w: 4.46456385}
        tangentMode: 0
      - time: .0666666701
        value: {x: 0, y: 0, z: .946714818, w: -.322073102}
        inSlope: {x: 0, y: 0, z: 8.48794365, w: 24.9498081}
        outSlope: {x: 0, y: 0, z: 8.48794365, w: 24.9498081}
        tangentMode: 0
      - time: .100000009
        value: {x: -0, y: -0, z: .735269785, w: .677774549}
        inSlope: {x: -0, y: -0, z: -6.34334993, w: 29.9954243}
        outSlope: {x: -0, y: -0, z: -6.34334993, w: 29.9954243}
        tangentMode: 0
      m_PreInfinity: 2
      m_PostInfinity: 2
    path: PlayerSword
  m_CompressedRotationCurves: []
  m_PositionCurves: []
  m_ScaleCurves: []
  m_FloatCurves:
  - curve:
      serializedVersion: 2
      m_Curve:
      - time: 0
        value: -.970000029
        inSlope: -.299999684
        outSlope: -.299999684
        tangentMode: 10
      - time: .100000009
        value: -1
        inSlope: -.299999684
        outSlope: -.299999684
        tangentMode: 10
      m_PreInfinity: 2
      m_PostInfinity: 2
    attribute: m_AnchoredPosition.x
    path: PlayerSword
    classID: 224
    script: {fileID: 0}
  - curve:
      serializedVersion: 2
      m_Curve:
      - time: 0
        value: -.790000021
        inSlope: -.899999678
        outSlope: -.899999678
        tangentMode: 10
      - time: .100000009
        value: -.879999995
        inSlope: -.899999678
        outSlope: -.899999678
        tangentMode: 10
      m_PreInfinity: 2
      m_PostInfinity: 2
    attribute: m_AnchoredPosition.y
    path: PlayerSword
    classID: 224
    script: {fileID: 0}
  m_PPtrCurves:
  - curve:
    - time: 0
      value: {fileID: 21300000, guid: 2e4f2c4bddbf7459a91702401cb5d4b4, type: 3}
    - time: .0333333351
      value: {fileID: 21300002, guid: 2e4f2c4bddbf7459a91702401cb5d4b4, type: 3}
    - time: .0666666701
      value: {fileID: 21300004, guid: 2e4f2c4bddbf7459a91702401cb5d4b4, type: 3}
    attribute: m_Sprite
    path: 
    classID: 212
    script: {fileID: 0}
  m_SampleRate: 30
  m_WrapMode: 0
  m_Bounds:
    m_Center: {x: 0, y: 0, z: 0}
    m_Extent: {x: 0, y: 0, z: 0}
  m_ClipBindingConstant:
    genericBindings:
    - path: 579291124
      attribute: 2
      script: {fileID: 0}
      classID: 4
      customType: 0
      isPPtrCurve: 0
    - path: 579291124
      attribute: 1460864421
      script: {fileID: 0}
      classID: 224
      customType: 0
      isPPtrCurve: 0
    - path: 579291124
      attribute: 538195251
      script: {fileID: 0}
      classID: 224
      customType: 0
      isPPtrCurve: 0
    - path: 0
      attribute: 0
      script: {fileID: 0}
      classID: 212
      customType: 23
      isPPtrCurve: 1
    pptrCurveMapping:
    - {fileID: 21300000, guid: 2e4f2c4bddbf7459a91702401cb5d4b4, type: 3}
    - {fileID: 21300002, guid: 2e4f2c4bddbf7459a91702401cb5d4b4, type: 3}
    - {fileID: 21300004, guid: 2e4f2c4bddbf7459a91702401cb5d4b4, type: 3}
  m_AnimationClipSettings:
    serializedVersion: 2
    m_StartTime: 0
    m_StopTime: .100000009
    m_OrientationOffsetY: 0
    m_Level: 0
    m_CycleOffset: 0
    m_LoopTime: 1
    m_LoopBlend: 0
    m_LoopBlendOrientation: 0
    m_LoopBlendPositionY: 0
    m_LoopBlendPositionXZ: 0
    m_KeepOriginalOrientation: 0
    m_KeepOriginalPositionY: 1
    m_KeepOriginalPositionXZ: 0
    m_HeightFromFeet: 0
    m_Mirror: 0
  m_EditorCurves:
  - curve:
      serializedVersion: 2
      m_Curve:
      - time: 0
        value: -.970000029
        inSlope: -.299999684
        outSlope: -.299999684
        tangentMode: 10
      - time: .100000009
        value: -1
        inSlope: -.299999684
        outSlope: -.299999684
        tangentMode: 10
      m_PreInfinity: 2
      m_PostInfinity: 2
    attribute: m_AnchoredPosition.x
    path: PlayerSword
    classID: 224
    script: {fileID: 0}
  - curve:
      serializedVersion: 2
      m_Curve:
      - time: 0
        value: -.790000021
        inSlope: -.899999678
        outSlope: -.899999678
        tangentMode: 10
      - time: .100000009
        value: -.879999995
        inSlope: -.899999678
        outSlope: -.899999678
        tangentMode: 10
      m_PreInfinity: 2
      m_PostInfinity: 2
    attribute: m_AnchoredPosition.y
    path: PlayerSword
    classID: 224
    script: {fileID: 0}
  - curve:
      serializedVersion: 2
      m_Curve:
      - time: 0
        value: 0
        inSlope: -0
        outSlope: -0
        tangentMode: 0
      - time: .0333333351
        value: -0
        inSlope: 0
        outSlope: 0
        tangentMode: 0
      - time: .0666666701
        value: 0
        inSlope: 0
        outSlope: 0
        tangentMode: 0
      - time: .100000009
        value: -0
        inSlope: -0
        outSlope: -0
        tangentMode: 0
      m_PreInfinity: 2
      m_PostInfinity: 2
    attribute: m_LocalRotation.x
    path: PlayerSword
    classID: 224
    script: {fileID: 0}
  - curve:
      serializedVersion: 2
      m_Curve:
      - time: 0
        value: 0
        inSlope: -0
        outSlope: -0
        tangentMode: 0
      - time: .0333333351
        value: -0
        inSlope: 0
        outSlope: 0
        tangentMode: 0
      - time: .0666666701
        value: 0
        inSlope: 0
        outSlope: 0
        tangentMode: 0
      - time: .100000009
        value: -0
        inSlope: -0
        outSlope: -0
        tangentMode: 0
      m_PreInfinity: 2
      m_PostInfinity: 2
    attribute: m_LocalRotation.y
    path: PlayerSword
    classID: 224
    script: {fileID: 0}
  - curve:
      serializedVersion: 2
      m_Curve:
      - time: 0
        value: -.784830332
        inSlope: 28.6271152
        outSlope: 28.6271152
        tangentMode: 0
      - time: .0333333351
        value: .169406876
        inSlope: 25.973175
        outSlope: 25.973175
        tangentMode: 0
      - time: .0666666701
        value: .946714818
        inSlope: 8.48794365
        outSlope: 8.48794365
        tangentMode: 0
      - time: .100000009
        value: .735269785
        inSlope: -6.34334993
        outSlope: -6.34334993
        tangentMode: 0
      m_PreInfinity: 2
      m_PostInfinity: 2
    attribute: m_LocalRotation.z
    path: PlayerSword
    classID: 224
    script: {fileID: 0}
  - curve:
      serializedVersion: 2
      m_Curve:
      - time: 0
        value: -.619710684
        inSlope: -10.9750643
        outSlope: -10.9750643
        tangentMode: 0
      - time: .0333333351
        value: -.985546172
        inSlope: 4.46456385
        outSlope: 4.46456385
        tangentMode: 0
      - time: .0666666701
        value: -.322073102
        inSlope: 24.9498081
        outSlope: 24.9498081
        tangentMode: 0
      - time: .100000009
        value: .677774549
        inSlope: 29.9954243
        outSlope: 29.9954243
        tangentMode: 0
      m_PreInfinity: 2
      m_PostInfinity: 2
    attribute: m_LocalRotation.w
    path: PlayerSword
    classID: 224
    script: {fileID: 0}
  m_EulerEditorCurves:
  - curve:
      serializedVersion: 2
      m_Curve:
      - time: 0
        value: 0
        inSlope: 0
        outSlope: 0
        tangentMode: 10
      - time: .100000009
        value: 0
        inSlope: 0
        outSlope: 0
        tangentMode: 10
      m_PreInfinity: 2
      m_PostInfinity: 2
    attribute: localEulerAnglesBaked.x
    path: PlayerSword
    classID: 224
    script: {fileID: 0}
  - curve:
      serializedVersion: 2
      m_Curve:
      - time: 0
        value: 0
        inSlope: 0
        outSlope: 0
        tangentMode: 10
      - time: .100000009
        value: 0
        inSlope: 0
        outSlope: 0
        tangentMode: 10
      m_PreInfinity: 2
      m_PostInfinity: 2
    attribute: localEulerAnglesBaked.y
    path: PlayerSword
    classID: 224
    script: {fileID: 0}
  - curve:
      serializedVersion: 2
      m_Curve:
      - time: 0
        value: -256.589996
        inSlope: 7112.49951
        outSlope: 7112.49951
        tangentMode: 10
      - time: .100000009
        value: 454.660004
        inSlope: 7112.49951
        outSlope: 7112.49951
        tangentMode: 10
      m_PreInfinity: 2
      m_PostInfinity: 2
    attribute: localEulerAnglesBaked.z
    path: PlayerSword
    classID: 224
    script: {fileID: 0}
  m_HasGenericRootTransform: 0
  m_HasMotionFloatCurves: 0
  m_GenerateMotionCurves: 0
  m_Events: []
